<?xml version="1.0" encoding="utf-8"?>
<!-- Generator: Adobe Illustrator 18.1.0, SVG Export Plug-In . SVG Version: 6.00 Build 0)  -->
<svg version="1.1" id="Layer_1" xmlns="http://www.w3.org/2000/svg" xmlns:xlink="http://www.w3.org/1999/xlink" x="0px" y="0px"
	 viewBox="-867 461 368 320" enable-background="new -867 461 368 320" xml:space="preserve">
<rect x="-867" y="461" fill="#FFFFFF" width="368" height="320"/>
<linearGradient id="SVGID_1_" gradientUnits="userSpaceOnUse" x1="-1294.0835" y1="42.6444" x2="-1294.0835" y2="195.2717" gradientTransform="matrix(1 0 0 -1 616.4395 689.1504)">
	<stop  offset="0" style="stop-color:#788EC4"/>
	<stop  offset="1" style="stop-color:#3EC4DF"/>
</linearGradient>
<path fill="url(#SVGID_1_)" d="M-762.8,640.6V499.8c0-2.7,1.8-5,4.4-5.7c2.6-0.7,5.3,0.5,6.6,2.8l74.1,131.8l74.1-131.8
	c1.3-2.3,4-3.5,6.6-2.8c2.6,0.7,4.4,3,4.4,5.7v140.9c0,3.2-2.6,5.9-5.9,5.9s-5.9-2.6-5.9-5.9V522.2l-68.3,121.3c-1,1.8-3,3-5.1,3
	s-4.1-1.2-5.1-3L-751,522.2v118.5c0,3.2-2.6,5.9-5.9,5.9C-760.1,646.5-762.8,643.9-762.8,640.6 M-780.4,646.5c3.2,0,5.9-2.6,5.9-5.9
	V499.8c0-3.2-2.6-5.9-5.9-5.9c-3.2,0-5.9,2.6-5.9,5.9v140.9C-786.2,643.9-783.6,646.5-780.4,646.5 M-574.9,646.5
	c3.2,0,5.9-2.6,5.9-5.9V499.8c0-3.2-2.6-5.9-5.9-5.9c-3.2,0-5.9,2.6-5.9,5.9v140.9C-580.8,643.9-578.2,646.5-574.9,646.5
	 M-677.6,604.7l57.4-102.1c1.6-2.8,0.6-6.4-2.2-8c-2.8-1.6-6.4-0.6-8,2.2l-47.2,83.9l-47.2-83.9c-1.6-2.8-5.2-3.8-8-2.2
	c-2.8,1.6-3.8,5.2-2.2,8L-677.6,604.7z M-739.3,640.6c0,3.2,2.6,5.9,5.9,5.9c3.2,0,5.9-2.6,5.9-5.9v-28.8l17.8,31.7
	c1.1,1.9,3.1,3,5.1,3c1,0,2-0.2,2.9-0.8c2.8-1.6,3.8-5.2,2.2-8l-39.8-70.8V640.6z M-653.6,645.7c0.9,0.5,1.9,0.8,2.9,0.8
	c2.1,0,4-1.1,5.1-3l17.8-31.7v28.8c0,3.2,2.6,5.9,5.9,5.9c3.2,0,5.9-2.6,5.9-5.9V567l-39.8,70.8
	C-657.4,640.6-656.4,644.2-653.6,645.7"/>
<g>
	<path fill="#8477B7" d="M-789.7,668.6h-0.9c-1.7,0-2.9,0.7-3.8,2.1l-10.3,16.7l-10.2-16.7c-0.8-1.3-2-2.2-3.8-2.2h-0.9
		c-2.4,0-4.2,1.9-4.2,4.2v30.7c0,2.3,1.8,4.1,4.1,4.1c2.3,0,4.2-1.8,4.2-4.1v-19.1l7.3,11.3c0.9,1.3,2,2.1,3.5,2.1
		c1.5,0,2.6-0.8,3.5-2.1l7.4-11.4v19.2c0,2.3,1.9,4.2,4.2,4.2c2.4,0,4.2-1.9,4.2-4.2v-30.6C-785.4,670.5-787.3,668.6-789.7,668.6"/>
	<path fill="#8477B7" d="M-736,701.9l-13.4-30.3c-0.9-2.1-2.6-3.4-4.9-3.4h-0.5c-2.3,0-4,1.3-5,3.4l-13.4,30.3
		c-0.3,0.6-0.5,1.2-0.5,1.8c0,2.2,1.7,4,3.9,4c1.8,0,3.2-1,3.9-2.6l2.7-6.3h16.9l2.6,6c0.8,1.8,2.1,2.9,4.1,2.9c2.3,0,4-1.8,4-4.1
		C-735.5,703-735.7,702.5-736,701.9z M-760,691.2l5.3-12.7l5.3,12.7H-760z"/>
	<path fill="#8477B7" d="M-700,668.8h-24.7c-2.1,0-3.9,1.8-3.9,3.9c0,2.1,1.8,3.9,3.9,3.9h8.1v26.8c0,2.4,1.9,4.2,4.2,4.2
		c2.4,0,4.2-1.9,4.2-4.2v-26.8h8.1c2.1,0,3.9-1.8,3.9-3.9C-696.1,670.6-697.9,668.8-700,668.8"/>
	<path fill="#8477B7" d="M-677.6,668.5c-2.4,0-4.2,1.9-4.2,4.2v30.7c0,2.4,1.9,4.2,4.2,4.2s4.2-1.9,4.2-4.2v-30.7
		C-673.4,670.4-675.3,668.5-677.6,668.5"/>
	<path fill="#8477B7" d="M-640.5,684.3c-6.7-1.7-8.3-2.5-8.3-5.1v-0.1c0-1.9,1.7-3.4,4.9-3.4c2.6,0,5.3,0.9,8.1,2.6
		c0.7,0.4,1.3,0.6,2.1,0.6c2.2,0,4-1.7,4-3.9c0-1.6-0.9-2.8-1.9-3.4c-3.5-2.2-7.5-3.4-12.2-3.4c-7.9,0-13.5,4.6-13.5,11.6v0.1
		c0,7.6,5,9.8,12.7,11.8c6.4,1.6,7.8,2.7,7.8,4.9v0.1c0,2.3-2.1,3.6-5.5,3.6c-3.7,0-6.9-1.3-9.8-3.5c-0.5-0.4-1.3-0.8-2.4-0.8
		c-2.2,0-4,1.7-4,3.9c0,1.3,0.7,2.5,1.6,3.2c4.3,3.1,9.4,4.6,14.5,4.6c8.3,0,14.1-4.3,14.1-11.9v-0.1
		C-628.3,689.1-632.7,686.3-640.5,684.3"/>
	<path fill="#8477B7" d="M-597.6,684.3c-6.7-1.7-8.3-2.5-8.3-5.1v-0.1c0-1.9,1.7-3.4,4.9-3.4c2.6,0,5.3,0.9,8.1,2.6
		c0.7,0.4,1.3,0.6,2.1,0.6c2.2,0,4-1.7,4-3.9c0-1.6-0.9-2.8-1.9-3.4c-3.5-2.2-7.5-3.4-12.2-3.4c-7.9,0-13.5,4.6-13.5,11.6v0.1
		c0,7.6,5,9.8,12.8,11.8c6.4,1.6,7.8,2.7,7.8,4.9v0.1c0,2.3-2.1,3.6-5.6,3.6c-3.7,0-6.9-1.3-9.8-3.5c-0.5-0.4-1.3-0.8-2.4-0.8
		c-2.2,0-4,1.7-4,3.9c0,1.3,0.7,2.5,1.6,3.2c4.3,3.1,9.4,4.6,14.5,4.6c8.3,0,14.1-4.3,14.1-11.9v-0.1
		C-585.4,689.1-589.8,686.3-597.6,684.3"/>
	<path fill="#8477B7" d="M-545.9,699.8h-17.4v-8.1h14.7c2.1,0,3.8-1.7,3.8-3.7s-1.7-3.8-3.8-3.8h-14.7v-7.8h17.1
		c2.1,0,3.8-1.6,3.8-3.7s-1.7-3.8-3.8-3.8h-21.3c-2.4,0-4.2,1.9-4.2,4.2v30c0,2.4,1.9,4.2,4.2,4.2h21.6c2.1,0,3.8-1.6,3.8-3.7
		C-542.1,701.5-543.8,699.8-545.9,699.8"/>
</g>
<g>
	<path fill="#8477B7" d="M-775.8,739L-775.8,739c0,3.3-2.8,5.3-7,5.3h-7.5c-0.6,0-1.1-0.5-1.1-1.1v-17c0-0.6,0.5-1.1,1.1-1.1h7.1
		c2.2,0,3.9,0.6,5,1.7c0.8,0.8,1.2,1.8,1.2,3.1v0.1c0,2.5-1.5,3.8-3,4.5C-777.7,735.1-775.8,736.4-775.8,739 M-789.2,733.7h5.7
		c2.6,0,4.4-1.2,4.4-3.4v-0.1c0-1.9-1.5-3.1-4.3-3.1h-5.8L-789.2,733.7L-789.2,733.7z M-778,738.9c0-2.1-1.8-3.3-5.1-3.3h-6.1v6.8
		h6.5C-779.8,742.4-778,741.1-778,738.9L-778,738.9L-778,738.9z M-754.2,742.3h-11v-6.7h9.6c0.5,0,1-0.4,1-1c0-0.5-0.4-1-1-1h-9.6
		v-6.6h10.8c0.6,0,1-0.4,1-1c0-0.5-0.4-1-1-1h-11.9c-0.6,0-1.1,0.5-1.1,1.1v17c0,0.6,0.5,1.1,1.1,1.1h12.1c0.5,0,1-0.4,1-1
		C-753.2,742.8-753.7,742.3-754.2,742.3 M-728,742.9c0.1,0.2,0.1,0.4,0.1,0.5c0,0.6-0.5,1-1,1c-0.5,0-0.9-0.4-1.1-0.8l-2-4.4h-10.5
		l-2,4.5c-0.2,0.5-0.6,0.7-1,0.7c-0.5,0-1-0.4-1-1c0-0.2,0-0.4,0.1-0.6l7.8-17.1c0.3-0.6,0.7-1,1.4-1h0.1c0.7,0,1.1,0.4,1.3,1
		L-728,742.9z M-732.8,737.3l-4.4-9.8l-4.4,9.8H-732.8z M-705.7,740c-0.3,0-0.5,0.1-0.7,0.3c-1.6,1.5-3.3,2.3-5.7,2.3
		c-4.2,0-7.4-3.5-7.4-7.9v-0.1c0-4.4,3.2-7.9,7.4-7.9c2.4,0,4,0.9,5.5,2.2c0.2,0.1,0.4,0.2,0.7,0.2c0.6,0,1.1-0.5,1.1-1.1
		c0-0.4-0.2-0.7-0.4-0.9c-1.8-1.5-3.8-2.5-6.9-2.5c-5.7,0-9.7,4.5-9.7,9.9v0.1c0,5.5,4.1,9.9,9.6,9.9c3.2,0,5.3-1.1,7.1-2.8
		c0.2-0.2,0.4-0.4,0.4-0.8C-704.7,740.5-705.2,740-705.7,740 M-682.2,725c-0.6,0-1.1,0.5-1.1,1.1v7.6h-11.1V726
		c0-0.6-0.5-1.1-1.1-1.1c-0.6,0-1.1,0.5-1.1,1.1v17.3c0,0.6,0.5,1.1,1.1,1.1c0.6,0,1.1-0.5,1.1-1.1v-7.7h11.1v7.7
		c0,0.6,0.5,1.1,1.1,1.1c0.6,0,1.1-0.5,1.1-1.1V726C-681.1,725.4-681.6,725-682.2,725 M-643.9,740c-0.3,0-0.5,0.1-0.7,0.3
		c-1.6,1.5-3.3,2.3-5.7,2.3c-4.2,0-7.5-3.5-7.5-7.9v-0.1c0-4.4,3.2-7.9,7.5-7.9c2.4,0,4,0.9,5.5,2.2c0.2,0.1,0.4,0.2,0.7,0.2
		c0.6,0,1.1-0.5,1.1-1.1c0-0.4-0.2-0.7-0.4-0.9c-1.8-1.5-3.8-2.5-6.9-2.5c-5.7,0-9.7,4.5-9.7,9.9v0.1c0,5.5,4.1,9.9,9.6,9.9
		c3.2,0,5.2-1.1,7.1-2.8c0.2-0.2,0.4-0.4,0.4-0.8C-642.9,740.5-643.4,740-643.9,740 M-622.6,742.3h-10V726c0-0.6-0.5-1.1-1.1-1.1
		c-0.6,0-1.1,0.5-1.1,1.1v17.2c0,0.6,0.5,1.1,1.1,1.1h11.1c0.5,0,1-0.4,1-1C-621.6,742.8-622.1,742.3-622.6,742.3 M-600.5,725
		c-0.6,0-1.1,0.5-1.1,1.1v10.2c0,4.2-2.3,6.3-5.8,6.3c-3.7,0-5.9-2.3-5.9-6.5V726c0-0.6-0.5-1.1-1.1-1.1c-0.6,0-1.1,0.5-1.1,1.1
		v10.2c0,5.4,3.2,8.3,8,8.3c4.8,0,8-2.9,8-8.5V726C-599.4,725.4-599.9,725-600.5,725 M-574.7,739L-574.7,739c0,3.3-2.8,5.3-7,5.3
		h-7.5c-0.6,0-1.1-0.5-1.1-1.1v-17c0-0.6,0.5-1.1,1.1-1.1h7.1c2.2,0,3.9,0.6,5,1.7c0.8,0.8,1.2,1.8,1.2,3.1v0.1c0,2.5-1.5,3.8-3,4.5
		C-576.5,735.1-574.7,736.4-574.7,739 M-588,733.7h5.7c2.6,0,4.4-1.2,4.4-3.4v-0.1c0-1.9-1.5-3.1-4.3-3.1h-5.8V733.7L-588,733.7z
		 M-576.9,738.9c0-2.1-1.8-3.3-5.1-3.3h-6.1v6.8h6.4C-578.7,742.4-576.9,741.1-576.9,738.9L-576.9,738.9L-576.9,738.9z"/>
</g>
</svg>
