<?xml version="1.0" encoding="utf-8"?>
<!-- Generator: Adobe Illustrator 15.1.0, SVG Export Plug-In . SVG Version: 6.00 Build 0)  -->
<!DOCTYPE svg PUBLIC "-//W3C//DTD SVG 1.1//EN" "http://www.w3.org/Graphics/SVG/1.1/DTD/svg11.dtd">
<svg version="1.1" id="Layer_1" xmlns="http://www.w3.org/2000/svg" xmlns:xlink="http://www.w3.org/1999/xlink" x="0px" y="0px"
	 width="129.73px" height="129.73px" viewBox="0 0 129.73 129.73" enable-background="new 0 0 129.73 129.73" xml:space="preserve">
<g>
	<g>
		<path fill="#FFFFFF" d="M86.411,61.207V36.785h-3.849c0,3.386,0,24.422,0,24.422c0,11.246-7.986,20.4-17.804,20.4
			c-9.813,0-17.801-9.154-17.801-20.4c0,0,0-21.036,0-24.422h-3.849v24.422c0,12.338,8.271,22.525,18.926,24.035v24.354h-1.602
			c-2.033,0-3.713,1.447-4.091,3.363h-4.418c-3.953,0-7.247,2.758-8.003,6.414h42.006c-0.758-3.656-4.055-6.414-8.009-6.414h-4.738
			c-0.376-1.916-2.059-3.363-4.09-3.363h-2.724V85.363C77.552,84.441,86.411,73.975,86.411,61.207z"/>
		<g>
			<path fill="#59B37F" d="M42.468,46.566c0,1.596-1.296,2.888-2.884,2.888l0,0c-1.599,0-2.891-1.292-2.891-2.888v-5.775
				c0-1.591,1.292-2.883,2.891-2.883l0,0c1.588,0,2.884,1.292,2.884,2.883V46.566z"/>
			<path fill="#59B37F" d="M92.744,46.566c0,1.596-1.293,2.888-2.887,2.888l0,0c-1.595,0-2.881-1.292-2.881-2.888v-5.775
				c0-1.591,1.286-2.883,2.881-2.883l0,0c1.594,0,2.887,1.292,2.887,2.883V46.566z"/>
			<path fill="#FFFFFF" d="M78.551,66.695c-1.595,0-2.886-1.293-2.886-2.887c0-1.598,1.291-2.885,2.886-2.885
				c0.311,0,0.601,0.061,0.884,0.148v-8.457c-0.253,0.071-0.521,0.126-0.805,0.126c-1.595,0-2.887-1.292-2.887-2.886
				c0-1.595,1.292-2.887,2.887-2.887c0.284,0,0.552,0.051,0.805,0.129v-9.227c-0.411,0.219-0.867,0.359-1.366,0.359
				c-1.595,0-2.886-1.293-2.886-2.891c0-1.592,1.291-2.883,2.886-2.883c0.499,0,0.955,0.131,1.366,0.354v-8.156
				c-0.232,0.059-0.473,0.104-0.722,0.104c-1.595,0-2.891-1.293-2.891-2.891c0-1.591,1.296-2.883,2.891-2.883
				c0.192,0,0.381,0.018,0.563,0.055c-0.24-1.625-0.783-3.149-1.584-4.54c0.04,0.179,0.057,0.369,0.057,0.559
				c0,1.591-1.292,2.882-2.891,2.882c-1.589,0-2.885-1.291-2.885-2.882c0-1.599,1.296-2.89,2.885-2.89
				c0.544,0,1.043,0.16,1.477,0.416c-1.257-1.498-2.833-2.756-4.65-3.665c-0.464,0.972-1.445,1.647-2.597,1.647
				c-1.595,0-2.886-1.295-2.886-2.887c0-0.112,0.022-0.216,0.03-0.32c-0.524-0.053-1.055-0.085-1.593-0.085
				c-0.557,0-1.104,0.034-1.646,0.093c-0.004,1.589-1.293,2.877-2.886,2.877c-1.029,0-1.927-0.544-2.439-1.359
				c-1.572,0.778-2.965,1.813-4.133,3.042c0.205-0.047,0.419-0.08,0.638-0.08c1.595,0,2.891,1.292,2.891,2.891
				c0,1.591-1.296,2.882-2.891,2.882c-1.498,0-2.71-1.146-2.854-2.605c-0.709,1.35-1.191,2.824-1.375,4.383
				c1.549,0.051,2.789,1.317,2.789,2.875c0,1.592-1.291,2.887-2.89,2.887v7.67c0.162-0.028,0.32-0.051,0.482-0.051
				c1.598,0,2.891,1.293,2.891,2.887s-1.293,2.887-2.891,2.887c-0.162,0-0.32-0.021-0.482-0.052v8.995
				c0.324-0.128,0.674-0.199,1.047-0.199c1.593,0,2.884,1.291,2.884,2.881c0,1.596-1.292,2.891-2.884,2.891
				c-0.373,0-0.723-0.076-1.047-0.2v8.557c0.306-0.11,0.626-0.179,0.964-0.179c1.593,0,2.889,1.295,2.889,2.887
				c0,1.59-1.296,2.887-2.889,2.887c-0.303,0-0.586-0.063-0.858-0.143c0.547,4.451,3.415,8.248,7.47,10.35
				c0.412-1.092,1.458-1.871,2.689-1.871c1.598,0,2.886,1.297,2.886,2.883c0,0.219-0.027,0.428-0.066,0.629
				c0.561,0.059,1.134,0.096,1.713,0.096c0.607,0,1.204-0.037,1.79-0.111c-0.039-0.197-0.064-0.396-0.064-0.613
				c0-1.59,1.291-2.883,2.886-2.883c1.217,0,2.255,0.76,2.68,1.828c4.107-2.152,6.987-6.061,7.435-10.617
				C79.107,66.641,78.836,66.695,78.551,66.695z M77.75,57.234c0,1.59-1.292,2.889-2.891,2.889c-1.589,0-2.885-1.299-2.885-2.889
				c0-1.6,1.296-2.887,2.885-2.887C76.458,54.348,77.75,55.635,77.75,57.234z M64.841,31.777c-1.599,0-2.89-1.295-2.89-2.89
				c0-1.591,1.291-2.886,2.89-2.886c1.593,0,2.884,1.295,2.884,2.886C67.725,30.482,66.434,31.777,64.841,31.777z M69.25,32.617
				c1.593,0,2.886,1.291,2.886,2.887c0,1.594-1.293,2.885-2.886,2.885c-1.595,0-2.886-1.291-2.886-2.885
				C66.365,33.908,67.656,32.617,69.25,32.617z M62.191,35.504c0,1.594-1.292,2.885-2.886,2.885c-1.593,0-2.886-1.291-2.886-2.885
				c0-1.596,1.293-2.887,2.886-2.887C60.9,32.617,62.191,33.908,62.191,35.504z M59.871,47.13c1.589,0,2.886,1.295,2.886,2.886
				c0,1.595-1.297,2.891-2.886,2.891c-1.599,0-2.89-1.296-2.89-2.891C56.98,48.425,58.271,47.13,59.871,47.13z M65.082,54.512
				c1.593,0,2.884,1.291,2.884,2.883c0,1.591-1.291,2.887-2.884,2.887c-1.599,0-2.891-1.296-2.891-2.887
				C62.191,55.803,63.483,54.512,65.082,54.512z M66.925,50.016c0-1.591,1.296-2.886,2.886-2.886c1.594,0,2.89,1.295,2.89,2.886
				c0,1.595-1.296,2.891-2.89,2.891C68.221,52.906,66.925,51.61,66.925,50.016z M74.623,25.841c1.595,0,2.886,1.292,2.886,2.887
				c0,1.591-1.291,2.89-2.886,2.89c-1.598,0-2.885-1.299-2.885-2.89C71.738,27.133,73.025,25.841,74.623,25.841z M69.893,19.306
				c1.59,0,2.886,1.292,2.886,2.882c0,1.595-1.296,2.891-2.886,2.891c-1.598,0-2.889-1.296-2.889-2.891
				C67.004,20.598,68.295,19.306,69.893,19.306z M64.758,12.328c1.597,0,2.886,1.292,2.886,2.891c0,1.59-1.289,2.886-2.886,2.886
				c-1.595,0-2.886-1.296-2.886-2.886C61.872,13.62,63.163,12.328,64.758,12.328z M59.63,19.379c1.593,0,2.881,1.295,2.881,2.885
				c0,1.596-1.288,2.888-2.881,2.888c-1.599,0-2.891-1.292-2.891-2.888C56.739,20.674,58.031,19.379,59.63,19.379z M51.686,28.964
				c0-1.594,1.298-2.89,2.891-2.89c1.595,0,2.886,1.296,2.886,2.89c0,1.595-1.292,2.888-2.886,2.888
				C52.983,31.852,51.686,30.559,51.686,28.964z M51.931,57.475c0-1.598,1.289-2.89,2.882-2.89c1.599,0,2.89,1.292,2.89,2.89
				c0,1.592-1.292,2.883-2.89,2.883C53.22,60.357,51.931,59.066,51.931,57.475z M54.975,73.748c-1.595,0-2.886-1.291-2.886-2.885
				c0-1.596,1.292-2.887,2.886-2.887c1.598,0,2.891,1.291,2.891,2.887C57.866,72.457,56.573,73.748,54.975,73.748z M59.788,66.857
				c-1.595,0-2.886-1.297-2.886-2.888c0-1.599,1.292-2.887,2.886-2.887c1.593,0,2.886,1.288,2.886,2.887
				C62.673,65.561,61.38,66.857,59.788,66.857z M64.92,73.914c-1.595,0-2.886-1.297-2.886-2.891s1.292-2.887,2.886-2.887
				c1.593,0,2.889,1.293,2.889,2.887S66.513,73.914,64.92,73.914z M66.846,63.97c0-1.599,1.292-2.887,2.886-2.887
				s2.885,1.288,2.885,2.887c0,1.591-1.291,2.888-2.885,2.888S66.846,65.561,66.846,63.97z M74.063,73.748
				c-1.595,0-2.891-1.291-2.891-2.885c0-1.596,1.296-2.887,2.891-2.887c1.593,0,2.885,1.291,2.885,2.887
				C76.948,72.457,75.656,73.748,74.063,73.748z"/>
			<rect x="49.843" y="35.824" fill="#59B37F" width="29.513" height="13.791"/>
		</g>
	</g>
</g>
</svg>
