<?xml version="1.0" encoding="utf-8"?>
<!-- Generator: Adobe Illustrator 18.1.0, SVG Export Plug-In . SVG Version: 6.00 Build 0)  -->
<svg version="1.1" id="Layer_1" xmlns="http://www.w3.org/2000/svg" xmlns:xlink="http://www.w3.org/1999/xlink" x="0px" y="0px"
	 viewBox="0 0 370 307" enable-background="new 0 0 370 307" xml:space="preserve">
<path fill="#282829" d="M354.3,194.3c-5.1,0-9.3,4.1-9.3,9.3c0,5.1,4.1,9.3,9.3,9.3c5.1,0,9.3-4.1,9.3-9.3
	C363.6,198.4,359.4,194.3,354.3,194.3z M354.3,210.9c-4.1,0-7.4-3.3-7.4-7.4c0-4.1,3.3-7.4,7.4-7.4c4.1,0,7.4,3.3,7.4,7.4
	C361.7,207.6,358.4,210.9,354.3,210.9z"/>
<g>
	<path fill="#282829" d="M353.2,204.1h-0.6v2.8c0,0.4-0.1,0.6-0.3,0.8c-0.2,0.2-0.4,0.3-0.6,0.3c-0.3,0-0.5-0.1-0.7-0.3
		c-0.2-0.2-0.2-0.5-0.2-0.8v-6.8c0-0.4,0.1-0.7,0.3-0.8c0.2-0.2,0.4-0.3,0.8-0.3h2.9c0.4,0,0.7,0,1,0c0.3,0,0.5,0.1,0.8,0.2
		c0.3,0.1,0.5,0.3,0.7,0.5c0.2,0.2,0.4,0.5,0.5,0.8c0.1,0.3,0.2,0.6,0.2,0.9c0,0.7-0.2,1.2-0.6,1.6c-0.4,0.4-0.9,0.7-1.7,0.8
		c0.3,0.2,0.6,0.4,0.9,0.7c0.3,0.3,0.5,0.7,0.8,1c0.2,0.4,0.4,0.7,0.5,1c0.1,0.3,0.2,0.5,0.2,0.6c0,0.1,0,0.2-0.1,0.3
		c-0.1,0.1-0.2,0.2-0.3,0.3c-0.1,0.1-0.3,0.1-0.4,0.1c-0.2,0-0.4,0-0.5-0.1c-0.1-0.1-0.3-0.2-0.3-0.4c-0.1-0.1-0.2-0.4-0.4-0.6
		l-0.7-1.2c-0.3-0.4-0.5-0.8-0.7-1c-0.2-0.2-0.4-0.4-0.6-0.5C353.8,204.2,353.6,204.1,353.2,204.1z M354.3,200.4h-1.6v2.4h1.6
		c0.4,0,0.8,0,1.1-0.1c0.3-0.1,0.5-0.2,0.7-0.4c0.2-0.2,0.2-0.4,0.2-0.7c0-0.2-0.1-0.5-0.2-0.6c-0.1-0.2-0.3-0.3-0.5-0.4
		C355.3,200.5,354.9,200.4,354.3,200.4z"/>
</g>
<g>
	<path fill="#282829" d="M12.5,217.6c0-3.7,1.7-6.2,5.6-6.2c3.9,0,5.6,2.5,5.6,6.2v1.6h0.2c3.5-4.6,8-7.8,15-7.8
		c7.4,0,15.6,3.7,15.6,16.2v24c0,3.3-1.4,6.2-6.2,6.2S42,255,42,251.7v-21.6c0-5-2.5-8.5-7.8-8.5c-4.3,0-9.4,3.6-9.4,9.7v20.4
		c0,3.3-1.4,6.2-6.2,6.2c-4.8,0-6.2-2.9-6.2-6.2V217.6z"/>
	<path fill="#282829" d="M71,194.4c3.6,0,6.4,2.9,6.4,6.4c0,3.5-2.9,6.4-6.4,6.4c-3.6,0-6.4-2.9-6.4-6.4
		C64.6,197.3,67.5,194.4,71,194.4 M64.8,217.6c0-3.3,1.4-6.2,6.2-6.2c4.8,0,6.2,2.9,6.2,6.2v34.1c0,3.3-1.4,6.2-6.2,6.2
		c-4.8,0-6.2-2.9-6.2-6.2V217.6z"/>
	<path fill="#282829" d="M129.6,253.2c0,14.9-9.1,21.7-22,21.7c-9.4,0-18.6-4.2-18.6-10.2c0-3,2.4-5.3,5.1-5.3
		c5.2,0,6.2,6.3,13.1,6.3c7.5,0,10.6-3.8,10.6-13.5v-2.5h-0.2c-2.2,3.2-7,5.9-11.9,5.9c-13,0-19.8-8.5-19.8-20.6
		c0-16,9-23.5,19.4-23.5c6,0,10.7,2.8,13,7.4h0.2v-1.5c0-3.8,1.9-5.8,5.6-5.8c3.8,0,5.6,2,5.6,5.8V253.2 M108,246.5
		c5.5,0,9.7-3.6,9.7-12.4c0-9-3.4-12.9-9.1-12.9c-8,0-10.4,5.8-10.4,13.5C98.2,240.2,101,246.5,108,246.5z"/>
	<path fill="#282829" d="M139.4,200.9c0-4.1,2.5-6.2,6.2-6.2c3.7,0,6.2,2.1,6.2,6.2v17h0.2c2.5-3.2,6.8-6.5,13.8-6.5
		c7.4,0,15.6,3.7,15.6,16.2v24c0,3.3-1.4,6.2-6.2,6.2c-4.8,0-6.2-2.9-6.2-6.2v-21.6c0-5-2.5-8.5-7.8-8.5c-4.3,0-9.4,3.6-9.4,9.7
		v20.4c0,3.3-1.4,6.2-6.2,6.2c-4.8,0-6.2-2.9-6.2-6.2V200.9z"/>
	<path fill="#282829" d="M194.3,220.7h-2.1c-3.5,0-4.9-1.4-4.9-4.1c0-2.7,1.4-4.1,4.9-4.1h2.1V205c0-4.1,2.4-6.2,6.2-6.2
		c3.7,0,6.2,2.1,6.2,6.2v7.5h3.7c3.6,0,5.6,1.1,5.6,4.1c0,3-1.9,4.1-5.6,4.1h-3.7v24.7c0,1.9,1,2.9,3.2,2.9h1.8
		c2.7,0,4.3,1.5,4.3,4.1c0,3.6-3,5.5-9,5.5c-9,0-12.7-3.7-12.7-11V220.7z"/>
	<path fill="#282829" d="M223.1,200.9c0-4.1,2.4-6.2,6.2-6.2c3.7,0,6.2,2.1,6.2,6.2v50.8c0,4.1-2.5,6.2-6.2,6.2
		c-3.7,0-6.2-2.1-6.2-6.2V200.9z"/>
	<path fill="#282829" d="M252.8,194.4c3.6,0,6.4,2.9,6.4,6.4c0,3.5-2.9,6.4-6.4,6.4c-3.6,0-6.4-2.9-6.4-6.4
		C246.4,197.3,249.2,194.4,252.8,194.4 M246.6,217.6c0-3.3,1.4-6.2,6.2-6.2s6.2,2.9,6.2,6.2v34.1c0,3.3-1.4,6.2-6.2,6.2
		s-6.2-2.9-6.2-6.2V217.6z"/>
	<path fill="#282829" d="M273.3,220.7h-2.8c-3.5,0-4.9-1.4-4.9-4.1c0-2.7,1.4-4.1,4.9-4.1h2.8v-6.2c0-7.8,6.4-11.9,13.6-11.9
		c4.5,0,8.1,1.8,8.1,5.9c0,2.3-1.8,4.2-4,4.2c-0.9,0-1.8-0.3-2.7-0.3c-1.8,0-2.7,1.2-2.7,2.9v5.3h3.8c3.6,0,5.6,1.1,5.6,4.1
		c0,3-1.9,4.1-5.6,4.1h-3.8v31.1c0,4.1-2.4,6.2-6.2,6.2c-3.7,0-6.2-2.1-6.2-6.2V220.7z"/>
	<path fill="#282829" d="M311.3,237c0,6.5,4.2,11.3,11.4,11.3c9.3,0,9.3-6.1,14.3-6.1c3,0,5.1,2.5,5.1,4.8
		c0,7.4-11.9,10.9-19.4,10.9c-17.3,0-23.8-11.7-23.8-22.4c0-14.4,8.7-24,23.4-24c14.2,0,22.3,10.1,22.3,20.2c0,4.2-1.3,5.3-5.4,5.3
		H311.3 M332.9,229.9c-0.7-5.7-4.9-9.8-10.4-9.8c-6.2,0-9.9,3.8-11.3,9.8H332.9z"/>
</g>
<g>
	<path fill="#282829" d="M88.9,158.1c0,4.5-3.6,8.1-8.1,8.1H20.4c-4.5,0-8.1-3.6-8.1-8.1l0,0c0-4.5,3.6-8.1,8.1-8.1h60.4
		C85.3,150,88.9,153.6,88.9,158.1L88.9,158.1z"/>
	<path fill="#282829" d="M88.9,135.1c0,4.5-3.6,8.1-8.1,8.1H20.4c-4.5,0-8.1-3.6-8.1-8.1l0,0c0-4.5,3.6-8.1,8.1-8.1h60.4
		C85.3,127,88.9,130.6,88.9,135.1L88.9,135.1z"/>
	<path fill="#282829" d="M88.9,112.1c0,4.5-3.6,8.1-8.1,8.1H20.4c-4.5,0-8.1-3.6-8.1-8.1l0,0c0-4.5,3.6-8.1,8.1-8.1h60.4
		C85.3,104,88.9,107.6,88.9,112.1L88.9,112.1z"/>
	<path fill="#282829" d="M88.9,89.1c0,4.5-3.6,8.1-8.1,8.1H20.4c-4.5,0-8.1-3.6-8.1-8.1l0,0c0-4.5,3.6-8.1,8.1-8.1h60.4
		C85.3,81,88.9,84.6,88.9,89.1L88.9,89.1z"/>
	<path fill="#282829" d="M88.9,66.1c0,4.5-3.6,8.1-8.1,8.1H20.4c-4.5,0-8.1-3.6-8.1-8.1l0,0c0-4.5,3.6-8.1,8.1-8.1h60.4
		C85.3,58,88.9,61.7,88.9,66.1L88.9,66.1z"/>
	<path fill="#282829" d="M88.9,43.1c0,4.5-3.6,8.1-8.1,8.1H20.4c-4.5,0-8.1-3.6-8.1-8.1l0,0c0-4.5,3.6-8.1,8.1-8.1h60.4
		C85.3,35,88.9,38.7,88.9,43.1L88.9,43.1z"/>
	<path fill="#282829" d="M88.9,20.1c0,4.5-3.6,8.1-8.1,8.1H20.4c-4.5,0-8.1-3.6-8.1-8.1l0,0c0-4.5,3.6-8.1,8.1-8.1h60.4
		C85.3,12,88.9,15.7,88.9,20.1L88.9,20.1z"/>
	<path fill="#282829" d="M259.3,158.1c0,4.5-3.6,8.1-8.1,8.1h-60.4c-4.5,0-8.1-3.6-8.1-8.1l0,0c0-4.5,3.6-8.1,8.1-8.1h60.4
		C255.6,150,259.3,153.6,259.3,158.1L259.3,158.1z"/>
	<path fill="#282829" d="M259.3,135.1c0,4.5-3.6,8.1-8.1,8.1h-60.4c-4.5,0-8.1-3.6-8.1-8.1l0,0c0-4.5,3.6-8.1,8.1-8.1h60.4
		C255.6,127,259.3,130.6,259.3,135.1L259.3,135.1z"/>
	<path fill="#282829" d="M259.3,112.1c0,4.5-3.6,8.1-8.1,8.1h-60.4c-4.5,0-8.1-3.6-8.1-8.1l0,0c0-4.5,3.6-8.1,8.1-8.1h60.4
		C255.6,104,259.3,107.6,259.3,112.1L259.3,112.1z"/>
	<path fill="#282829" d="M259.3,89.1c0,4.5-3.6,8.1-8.1,8.1h-60.4c-4.5,0-8.1-3.6-8.1-8.1l0,0c0-4.5,3.6-8.1,8.1-8.1h60.4
		C255.6,81,259.3,84.6,259.3,89.1L259.3,89.1z"/>
	<path fill="#282829" d="M259.3,66.1c0,4.5-3.6,8.1-8.1,8.1h-60.4c-4.5,0-8.1-3.6-8.1-8.1l0,0c0-4.5,3.6-8.1,8.1-8.1h60.4
		C255.6,58,259.3,61.7,259.3,66.1L259.3,66.1z"/>
	<path fill="#282829" d="M259.3,43.1c0,4.5-3.6,8.1-8.1,8.1h-60.4c-4.5,0-8.1-3.6-8.1-8.1l0,0c0-4.5,3.6-8.1,8.1-8.1h60.4
		C255.6,35,259.3,38.7,259.3,43.1L259.3,43.1z"/>
	<path fill="#282829" d="M344.6,158.1c0,4.5-3.6,8.1-8.1,8.1h-60.4c-4.5,0-8.1-3.6-8.1-8.1l0,0c0-4.5,3.6-8.1,8.1-8.1h60.4
		C341,150,344.6,153.6,344.6,158.1L344.6,158.1z"/>
	<path fill="#282829" d="M344.6,135.1c0,4.5-3.6,8.1-8.1,8.1h-60.4c-4.5,0-8.1-3.6-8.1-8.1l0,0c0-4.5,3.6-8.1,8.1-8.1h60.4
		C341,127,344.6,130.6,344.6,135.1L344.6,135.1z"/>
	<path fill="#282829" d="M173.5,158.1c0,4.5-3.6,8.1-8.1,8.1H105c-4.5,0-8.1-3.6-8.1-8.1l0,0c0-4.5,3.6-8.1,8.1-8.1h60.4
		C169.9,150,173.5,153.6,173.5,158.1L173.5,158.1z"/>
	<path fill="#282829" d="M173.5,135.1c0,4.5-3.6,8.1-8.1,8.1H105c-4.5,0-8.1-3.6-8.1-8.1l0,0c0-4.5,3.6-8.1,8.1-8.1h60.4
		C169.9,127,173.5,130.6,173.5,135.1L173.5,135.1z"/>
	<path fill="#282829" d="M173.5,112.1c0,4.5-3.6,8.1-8.1,8.1H105c-4.5,0-8.1-3.6-8.1-8.1l0,0c0-4.5,3.6-8.1,8.1-8.1h60.4
		C169.9,104,173.5,107.6,173.5,112.1L173.5,112.1z"/>
	<path fill="#282829" d="M173.5,89.1c0,4.5-3.6,8.1-8.1,8.1H105c-4.5,0-8.1-3.6-8.1-8.1l0,0c0-4.5,3.6-8.1,8.1-8.1h60.4
		C169.9,81,173.5,84.6,173.5,89.1L173.5,89.1z"/>
</g>
<g>
	<path fill="#282829" d="M254.5,280c0-1.4,0.8-2.3,2.2-2.3c1.4,0,2.2,0.9,2.2,2.3v0.6h0.1c1.2-1.9,3.3-3,5.6-3c1.6,0,3.6,0.7,4.5,3
		c1.3-1.8,3-3,5.5-3c3.2,0,5.8,1.5,5.8,5.7v9.6c0,1.2-0.5,2.3-2.3,2.3c-1.8,0-2.3-1.1-2.3-2.3v-8.4c0-1.7-0.7-3-2.6-3
		c-1.8,0-3.4,1.4-3.4,3.6v7.8c0,1.2-0.5,2.3-2.3,2.3c-1.8,0-2.3-1.1-2.3-2.3v-8.4c0-1.7-0.7-3-2.6-3c-1.8,0-3.4,1.4-3.4,3.6v7.8
		c0,1.2-0.5,2.3-2.3,2.3c-1.8,0-2.3-1.1-2.3-2.3V280z"/>
	<path fill="#282829" d="M300,292.9c0,1.4-0.6,2.3-2.1,2.3c-1.5,0-2.1-0.9-2.1-2.3v-0.6h-0.1c-1.3,1.7-3,3-5.7,3
		c-2.8,0-5.9-1.4-5.9-6.2V280c0-1.2,0.5-2.3,2.3-2.3c1.8,0,2.3,1.1,2.3,2.3v8.2c0,1.9,0.9,3.2,3,3.2c1.6,0,3.6-1.3,3.6-3.7V280
		c0-1.2,0.5-2.3,2.3-2.3s2.3,1.1,2.3,2.3V292.9z"/>
	<path fill="#282829" d="M310,277.7c3.6,0,7.2,1.4,7.2,3.6c0,1.1-0.7,2-2,2c-1.8,0-1.9-2.1-4.8-2.1c-1.6,0-2.7,0.4-2.7,1.4
		c0,1.1,1.1,1.4,2.5,1.7l2,0.5c2.7,0.6,5.8,1.7,5.8,5c0,3.8-3.7,5.6-7.2,5.6c-4.2,0-7.8-1.9-7.8-4.2c0-1,0.6-2,1.9-2
		c2,0,2.2,2.9,5.7,2.9c1.7,0,2.7-0.7,2.7-1.7c0-1.2-1-1.4-2.7-1.8l-2.8-0.7c-2.7-0.7-4.8-1.8-4.8-4.9
		C303,279.1,306.8,277.7,310,277.7z"/>
	<path fill="#282829" d="M321.1,273.7c0,1.3,1.1,2.4,2.4,2.4c1.3,0,2.4-1.1,2.4-2.4c0-1.3-1.1-2.4-2.4-2.4
		C322.2,271.2,321.1,272.3,321.1,273.7 M321.2,292.9c0,1.2,0.5,2.3,2.3,2.3s2.3-1.1,2.3-2.3V280c0-1.2-0.5-2.3-2.3-2.3
		s-2.3,1.1-2.3,2.3V292.9z"/>
	<path fill="#282829" d="M337.8,277.7c3.9,0,6.8,2.2,6.8,4.4c0,1.3-1,2-2.2,2c-2.2,0-1.4-2.8-4.8-2.8c-1.8,0-4,1.3-4,5.5
		c0,2.9,1.4,4.8,3.9,4.8c3.3,0,2.6-3,5-3c1.2,0,2,0.9,2,1.8c0,2.1-2.3,4.9-7.1,4.9c-5.8,0-8.5-3.6-8.5-8.5
		C329,281.4,332,277.7,337.8,277.7z"/>
</g>
</svg>
