<?xml version="1.0" encoding="utf-8"?>
<!-- Generator: Adobe Illustrator 15.1.0, SVG Export Plug-In . SVG Version: 6.00 Build 0)  -->
<!DOCTYPE svg PUBLIC "-//W3C//DTD SVG 1.1//EN" "http://www.w3.org/Graphics/SVG/1.1/DTD/svg11.dtd">
<svg version="1.1" id="Layer_1" xmlns="http://www.w3.org/2000/svg" xmlns:xlink="http://www.w3.org/1999/xlink" x="0px" y="0px"
	 width="750px" height="94.629px" viewBox="0 0 750 94.629" enable-background="new 0 0 750 94.629" xml:space="preserve">
<path fill="#167694" d="M138.55,94.629l-0.034-6.973h3.562l0.033,6.973l6.348-0.008v0.008h216.341v-6.973h3.563v6.973h222.247
	l-0.062-6.9h3.873l-0.011,6.9c0,0,104.472,0,153.438,0V82.239h-12.315v-0.074h-0.001l-1.631-5.936H721.88l-2.078,5.936h-5.787
	V70.295l-3.188-7.717h-1.039c-0.521-2.152-2.225-3.934-4.377-4.451c0-0.816-0.668-1.484-1.41-1.484s-1.336,0.594-1.41,1.41
	c-2.225,0.52-4.006,2.225-4.524,4.451h-1.187v3.635h-3.858V49.668h-2.894l-3.488-7.643l-3.188,7.643h-3.115V32.458l-5.342,9.568
	v7.643v1.855v0.074v14.615h-3.34V49.668h-2.894l-3.485-7.643l-3.191,7.643h-3.115V32.456l-5.342,9.57v7.123h-6.307l-1.188-4.525
	h-11.574l-1.928,4.525h-4.153v4.674h-3.044v7.938h-2.372v12.762h-1.263V65.62h-15.135v15.135h-5.861V46.333h-2.375l-0.075-4.676
	h-1.704l-4.527-9.941l-4.525,9.941h-1.631v4.602h-2.301v41.025h-4.451V67.772h-2.227v-2.449h-0.742
	c-0.074-1.186-1.111-2.076-2.373-2.076s-2.301,0.891-2.375,2.076h-0.074V52.786h-23.889v34.275h-0.668V33.125h-0.074
	c0.074-0.596,0.074-1.264,0.074-1.932c0-3.932-2.447-7.27-5.861-8.457c-0.148-1.482-0.816-2.447-1.707-2.818v-7.863h-0.518V2.557
	h-0.521v9.498h-0.52v7.789c-0.966,0.371-1.707,1.484-1.855,2.82c-3.338,1.111-5.787,4.449-5.787,8.383c0,0.668,0,1.336,0.074,1.93
	h-0.074v48.668h-1.039v-3.041V66.436L518.448,78.53h-0.074v3.709h-5.711l-1.633-5.936h-12.021l-2.075,5.936h-5.787V70.37
	l-3.191-7.717h-1.039c-0.518-2.15-2.225-3.932-4.377-4.451c0-0.816-0.668-1.482-1.408-1.482c-0.742,0-1.336,0.592-1.41,1.408
	c-2.227,0.52-4.006,2.227-4.524,4.451h-1.188v3.637h-3.856V49.67h-2.896l-3.485-7.643l-3.043,7.643h-3.115V32.458l-5.342,9.57v7.643
	v1.854v0.074v14.615h-6.529V49.668h-2.894l-3.487-7.643l-3.189,7.643h-3.114V32.458l-5.343,9.568v7.123h-6.307l-1.188-4.525h-11.574
	l-1.929,4.525h-4.156v4.676h-3.04v7.938h-2.375v12.76h-1.261V65.62h-15.135v15.137h-6.007V46.333h-2.375v-4.676h-0.002h-1.707
	l-4.525-9.941l-4.524,9.941h-1.634v4.602h-2.3v41.025h-4.451V67.772h-2.226v-2.449h-0.742c-0.074-1.186-1.113-2.076-2.374-2.076
	c-1.262,0-2.3,0.891-2.374,2.076h-0.074V52.786h-23.89v34.275h-0.668v-31.9h-0.074c0.074-0.596,0.074-1.262,0.074-1.93
	c0-3.934-2.448-7.271-5.861-8.459c-0.147-1.482-0.814-2.447-1.706-2.818v-7.789h-0.52V34.09h-0.445v0.074h-0.519v7.789
	c-0.965,0.371-1.707,1.484-1.855,2.818c-3.338,1.113-5.786,4.451-5.786,8.385c0,0.668,0,1.336,0.073,1.93h-0.073v26.561h-1.039
	v-3.043V66.438L292.536,78.53h-0.074v3.711h-5.713l-1.632-5.936h-12.02l-2.077,5.936h-5.787V70.37l-3.19-7.717h-1.038
	c-0.52-2.15-2.226-3.932-4.378-4.449c0-0.816-0.667-1.484-1.408-1.484c-0.742,0-1.337,0.594-1.41,1.41
	c-2.227,0.52-4.006,2.225-4.525,4.451h-1.187v3.635h-3.858V49.67h-2.894l-3.487-7.643l-3.115,7.643h-3.116V32.459l-5.342,9.568
	v7.643v1.855V51.6v15.209h-6.825l-0.074-16.621h-2.895l-3.485-7.643l-3.19,7.643h-3.116V32.977l-5.342,9.568v7.123h-6.307
	l-1.188-4.525h-11.573l-1.93,4.525h-4.153v4.674h-3.042v7.939h-2.374v12.76h-1.263v-8.902h-15.209v15.137h-5.86V46.694l-2.374-0.361
	v-4.676h-1.706l-4.526-9.941l-4.524,9.941h-1.632v4.602h-2.301v41.025h-4.452V67.772h-2.226v-2.449h-0.742
	c-0.074-1.186-1.111-2.076-2.374-2.076c-1.261,0-2.3,0.891-2.374,2.076h-0.073V52.786H95.263v34.275h-0.669V33.125h-0.073
	c0.073-0.596,0.073-1.264,0.073-1.932c0-3.932-2.448-7.27-5.86-8.457c-0.147-1.482-0.815-2.447-1.707-2.818v-7.863h-0.52V2.557
	h-0.519v9.498h-0.521v7.789c-0.965,0.371-1.706,1.484-1.854,2.82c-3.34,1.111-5.787,4.449-5.787,8.383c0,0.668,0,1.336,0.073,1.93
	h-0.073v48.668h-1.039v-3.041V66.436L66.179,78.53h-0.074v3.709h-5.713l-1.632-5.936H46.816l-2.077,5.936h-5.787V70.37l-3.189-7.717
	h-1.039c-0.52-2.15-2.226-3.932-4.377-4.451c0-0.816-0.668-1.482-1.41-1.482c-0.74,0-1.335,0.592-1.409,1.408
	c-2.226,0.52-4.007,2.227-4.524,4.451h-1.188v3.637h-3.857V49.67h-2.894l-3.486-7.643L8.46,49.67H5.342V32.458L0,42.028v52.602
	C46.147,94.629,138.55,94.629,138.55,94.629z M589.078,60.946h-1.41v-2.521h1.41V60.946z M589.078,54.047h-1.41v-2.523h1.41V54.047z
	 M589.078,50.262h-1.41v-2.521h1.41V50.262z M591.231,60.946h-1.41v-2.521h1.41V60.946z M592.936,57.608h-1.408v-2.521h1.408V57.608
	z M592.936,54.047h-1.408v-2.523h1.408V54.047z M593.901,60.946v-2.521h1.409v2.521H593.901z M593.901,57.608v-2.521h1.409v2.521
	H593.901z M596.573,85.504h-1.41v-2.523h1.41V85.504z M596.647,50.262h-1.41v-2.521h1.41V50.262z M597.683,47.741h0.742h0.668v2.521
	h-1.41V47.741z M597.683,58.424h1.41v2.521h-1.41V58.424z M597.61,82.981h1.41v2.523h-1.41V82.981z M587.52,43.512h9.275v1.557
	h-9.275V43.512z M587.074,82.981h1.41v2.523h-1.41V82.981z M585.295,47.741h0.742h0.74v2.521h-0.074h-1.408V47.741z M585.295,55.086
	h1.408v2.521h-1.408V55.086z M533.436,51.079h-1.41v-2.521h1.41V51.079z M533.436,44.329h-1.41v-2.523h1.41V44.329z M536.328,47.667
	h-1.41v-2.524h1.41V47.667z M534.843,44.329v-2.523h1.41v2.523H534.843z M538.481,47.667h-1.41v-2.524h1.41V47.667z M538.481,40.989
	h-1.41v-0.965c0.444,0,0.965,0,1.41,0V40.989z M540.631,44.329h-1.41v-2.523h1.41V44.329z M542.412,51.079h-1.41v-2.521h1.41V51.079
	z M542.412,47.667h-1.41v-2.524h1.41V47.667z M544.194,44.329h-1.41v-2.523h1.41V44.329z M544.636,28.747h-5.268l2.969-3.412
	C542.338,25.334,544.045,26.596,544.636,28.747z M541.299,24.444l-2.893,2.969l-2.672-2.895
	C538.183,22.959,541.299,24.444,541.299,24.444z M534.399,25.186l3.043,3.563h-5.193C532.545,27.042,534.399,25.186,534.399,25.186z
	 M531.655,29.86h13.649v2.152h-13.649V29.86z M363.091,60.946h-1.409v-2.521h1.409V60.946z M363.091,54.047h-1.409v-2.523h1.409
	V54.047z M363.091,50.262h-1.409v-2.521h1.409V50.262z M365.242,60.946h-1.409v-2.521h1.409V60.946z M366.949,57.608h-1.41v-2.521
	h1.41V57.608z M366.949,54.047h-1.41v-2.523h1.41V54.047z M367.913,60.946v-2.521h1.41v2.521H367.913z M367.913,57.608v-2.521h1.41
	v2.521H367.913z M370.584,85.504h-1.409v-2.523h1.409V85.504z M370.734,50.262h-1.409v-2.521h1.409V50.262z M371.698,47.741h0.742
	h0.667v2.521h-1.409V47.741z M371.698,58.424h1.409v2.521h-1.409V58.424z M371.623,82.981h1.409v2.523h-1.409V82.981z
	 M361.609,43.512h9.272v1.557h-9.272V43.512z M361.088,82.981h1.409v2.523h-1.409V82.981z M359.308,47.741h0.741h0.742v2.521h-0.074
	h-1.409V47.741z M359.308,55.086h1.409v2.521h-1.409V55.086z M307.523,73.188h-1.409v-2.521h1.409V73.188z M307.523,66.362h-1.409
	V63.84h1.409V66.362z M310.341,69.776h-1.409v-2.521h1.409V69.776z M308.859,66.362V63.84h1.408v2.521H308.859z M312.492,69.776
	h-1.409v-2.521h1.409V69.776z M312.492,63.098h-1.409v-0.965c0.445,0,0.964,0,1.409,0V63.098z M314.646,66.362h-1.41V63.84h1.41
	V66.362z M316.425,73.188h-1.41v-2.521h1.41V73.188z M316.425,69.776h-1.41v-2.521h1.41V69.776z M318.205,66.362h-1.409V63.84h1.409
	V66.362z M318.725,50.856h-5.268l2.968-3.412C316.351,47.37,318.131,48.631,318.725,50.856z M315.313,46.553l-2.895,2.967
	l-2.671-2.893C312.271,45.069,315.313,46.553,315.313,46.553z M308.412,47.296l3.042,3.56h-5.193
	C306.558,49.151,308.412,47.296,308.412,47.296z M305.668,51.895h13.651v2.152h-13.651V51.895z M136.809,60.946H135.4v-2.521h1.409
	V60.946z M136.809,54.047H135.4v-2.523h1.409V54.047z M136.809,50.262H135.4v-2.521h1.409V50.262z M138.962,60.946h-1.41v-2.521
	h1.41V60.946z M140.668,57.608h-1.41v-2.521h1.41V57.608z M140.668,54.047h-1.41v-2.523h1.41V54.047z M141.632,60.946v-2.521h1.409
	v2.521H141.632z M141.632,57.608v-2.521h1.409v2.521H141.632z M144.303,85.504h-1.41v-2.523h1.41V85.504z M144.451,50.262h-1.409
	v-2.521h1.409V50.262z M145.416,47.741h0.742h0.668v2.521h-1.41V47.741z M145.416,58.424h1.41v2.521h-1.41V58.424z M145.342,82.981
	h1.41v2.523h-1.41V82.981z M135.326,43.512h9.272v1.557h-9.272V43.512z M134.806,82.981h1.41v2.523h-1.41V82.981z M133.026,47.741
	h0.742h0.741v2.521h-0.074h-1.409V47.741z M133.026,55.086h1.409v2.521h-1.409V55.086z M81.24,51.079h-1.409v-2.521h1.409V51.079z
	 M81.24,44.329h-1.409v-2.523h1.409V44.329z M84.059,47.667H82.65v-2.524h1.409V47.667z M82.576,44.329v-2.523h1.41v2.523H82.576z
	 M86.212,47.667h-1.41v-2.524h1.41V47.667z M86.212,40.989h-1.41v-0.965c0.445,0,0.965,0,1.41,0V40.989z M88.364,44.329h-1.41
	v-2.523h1.41V44.329z M90.143,51.079h-1.409v-2.521h1.409V51.079z M90.143,47.667h-1.409v-2.524h1.409V47.667z M91.923,44.329
	h-1.409v-2.523h1.409V44.329z M92.443,28.747h-5.268l2.968-3.412C90.069,25.334,91.849,26.596,92.443,28.747z M89.031,24.444
	l-2.895,2.969l-2.671-2.895C85.99,22.959,89.031,24.444,89.031,24.444z M82.131,25.186l3.042,3.563H79.98
	C80.276,27.042,82.131,25.186,82.131,25.186z M79.385,29.86h13.651v2.152H79.385V29.86z"/>
</svg>
