<svg version="1.1" id="social_twitter" xmlns="http://www.w3.org/2000/svg" xmlns:xlink="http://www.w3.org/1999/xlink" x="0px" y="0px"
	 viewBox="0 0 200 200" enable-background="new 0 0 200 200" xml:space="preserve">
<path fill="#020000" d="M0,0v200.1h200.4V0.4L0,0z M165.4,69.6c0.1,1.3,0.1,2.6,0.1,4c0,40.5-30.8,87.2-87.2,87.2
	c-17.3,0-33.4-5.1-47-13.8c2.4,0.3,4.8,0.4,7.3,0.4c14.4,0,27.6-4.9,38.1-13.1c-13.4-0.2-24.7-9.1-28.6-21.3
	c1.9,0.4,3.8,0.5,5.8,0.5c2.8,0,5.5-0.4,8.1-1.1c-14-2.8-24.6-15.2-24.6-30.1c0-0.1,0-0.3,0-0.4c4.1,2.3,8.9,3.7,13.9,3.8
	C42.9,80.4,37.5,71,37.5,60.4c0-5.6,1.5-10.9,4.2-15.4c15.1,18.5,37.7,30.7,63.2,32c-0.5-2.2-0.8-4.6-0.8-7
	c0-16.9,13.7-30.7,30.7-30.7c8.8,0,16.8,3.7,22.4,9.7c7-1.4,13.5-3.9,19.5-7.4c-2.3,7.2-7.1,13.2-13.5,17c6.2-0.7,12.1-2.4,17.6-4.8
	C176.6,59.9,171.4,65.3,165.4,69.6z"/>
</svg>
